INDEX VERSION 1.127+I:\WorkspaceWeb\.metadata\.plugins\org.eclipse.jdt.core
2744111651.index
3674792348.index
1201660457.index
545089467.index
952558652.index
947348633.index
3741046560.index
831966124.index
3836185351.index
387829504.index
2710905261.index
303316071.index
4234918199.index
989000526.index
2239467641.index
891011271.index
815852130.index
1726295500.index
4169651095.index
1121065476.index
2911650354.index
869624290.index
2726362563.index
1525561123.index
